wandb: Tracking run with wandb version 0.15.12
wandb: W&B syncing is set to `offline` in this directory.  
wandb: Run `wandb online` or set WANDB_MODE=online to enable cloud syncing.
/home/usmana/miniconda3/envs/rl4co-env/lib/python3.10/site-packages/lightning/pytorch/loggers/wandb.py:396: UserWarning: There is a wandb run already in progress and newly created instances of `WandbLogger` will reuse this run. If this is not desired, call `wandb.finish()` before instantiating `WandbLogger`.
  rank_zero_warn(
/home/usmana/miniconda3/envs/rl4co-env/lib/python3.10/site-packages/lightning/pytorch/utilities/parsing.py:196: UserWarning: Attribute 'env' is an instance of `nn.Module` and is already saved during checkpointing. It is recommended to ignore them using `self.save_hyperparameters(ignore=['env'])`.
  rank_zero_warn(
/home/usmana/miniconda3/envs/rl4co-env/lib/python3.10/site-packages/lightning/pytorch/utilities/parsing.py:196: UserWarning: Attribute 'policy' is an instance of `nn.Module` and is already saved during checkpointing. It is recommended to ignore them using `self.save_hyperparameters(ignore=['policy'])`.
  rank_zero_warn(
/home/usmana/miniconda3/envs/rl4co-env/lib/python3.10/site-packages/lightning/fabric/plugins/environments/slurm.py:165: PossibleUserWarning: The `srun` command is available on your system but is not used. HINT: If your intention is to run Lightning on SLURM, prepend your python command with `srun` like so: srun python attn50_gruconv.py ...
  rank_zero_warn(
Using 16bit Automatic Mixed Precision (AMP)
Trainer already configured with model summary callbacks: [<class 'lightning.pytorch.callbacks.rich_model_summary.RichModelSummary'>]. Skipping setting a default `ModelSummary` callback.
GPU available: True (cuda), used: True
TPU available: False, using: 0 TPU cores
IPU available: False, using: 0 IPUs
HPU available: False, using: 0 HPUs
val_file not set. Generating dataset instead
test_file not set. Generating dataset instead
LOCAL_RANK: 0 - CUDA_VISIBLE_DEVICES: [0]
/home/usmana/miniconda3/envs/rl4co-env/lib/python3.10/site-packages/lightning/pytorch/trainer/connectors/data_connector.py:432: PossibleUserWarning: The dataloader, val_dataloader, does not have many workers which may be a bottleneck. Consider increasing the value of the `num_workers` argument` (try 80 which is the number of cpus on this machine) in the `DataLoader` init to improve performance.
  rank_zero_warn(
/home/usmana/miniconda3/envs/rl4co-env/lib/python3.10/site-packages/lightning/pytorch/trainer/connectors/data_connector.py:432: PossibleUserWarning: The dataloader, train_dataloader, does not have many workers which may be a bottleneck. Consider increasing the value of the `num_workers` argument` (try 80 which is the number of cpus on this machine) in the `DataLoader` init to improve performance.
  rank_zero_warn(
Traceback (most recent call last):
  File "/home/usmana/rl4co2050/attn50_gruconv.py", line 68, in <module>
    trainer.fit(model)
  File "/home/usmana/rl4co2050/rl4co/utils/trainer.py", line 139, in fit
    super().fit(
  File "/home/usmana/miniconda3/envs/rl4co-env/lib/python3.10/site-packages/lightning/pytorch/trainer/trainer.py", line 529, in fit
    call._call_and_handle_interrupt(
  File "/home/usmana/miniconda3/envs/rl4co-env/lib/python3.10/site-packages/lightning/pytorch/trainer/call.py", line 42, in _call_and_handle_interrupt
    return trainer_fn(*args, **kwargs)
  File "/home/usmana/miniconda3/envs/rl4co-env/lib/python3.10/site-packages/lightning/pytorch/trainer/trainer.py", line 568, in _fit_impl
    self._run(model, ckpt_path=ckpt_path)
  File "/home/usmana/miniconda3/envs/rl4co-env/lib/python3.10/site-packages/lightning/pytorch/trainer/trainer.py", line 973, in _run
    results = self._run_stage()
  File "/home/usmana/miniconda3/envs/rl4co-env/lib/python3.10/site-packages/lightning/pytorch/trainer/trainer.py", line 1016, in _run_stage
    self.fit_loop.run()
  File "/home/usmana/miniconda3/envs/rl4co-env/lib/python3.10/site-packages/lightning/pytorch/loops/fit_loop.py", line 201, in run
    self.advance()
  File "/home/usmana/miniconda3/envs/rl4co-env/lib/python3.10/site-packages/lightning/pytorch/loops/fit_loop.py", line 354, in advance
    self.epoch_loop.run(self._data_fetcher)
  File "/home/usmana/miniconda3/envs/rl4co-env/lib/python3.10/site-packages/lightning/pytorch/loops/training_epoch_loop.py", line 133, in run
    self.advance(data_fetcher)
  File "/home/usmana/miniconda3/envs/rl4co-env/lib/python3.10/site-packages/lightning/pytorch/loops/training_epoch_loop.py", line 218, in advance
    batch_output = self.automatic_optimization.run(trainer.optimizers[0], kwargs)
  File "/home/usmana/miniconda3/envs/rl4co-env/lib/python3.10/site-packages/lightning/pytorch/loops/optimization/automatic.py", line 185, in run
    self._optimizer_step(kwargs.get("batch_idx", 0), closure)
  File "/home/usmana/miniconda3/envs/rl4co-env/lib/python3.10/site-packages/lightning/pytorch/loops/optimization/automatic.py", line 260, in _optimizer_step
    call._call_lightning_module_hook(
  File "/home/usmana/miniconda3/envs/rl4co-env/lib/python3.10/site-packages/lightning/pytorch/trainer/call.py", line 144, in _call_lightning_module_hook
    output = fn(*args, **kwargs)
  File "/home/usmana/miniconda3/envs/rl4co-env/lib/python3.10/site-packages/lightning/pytorch/core/module.py", line 1256, in optimizer_step
    optimizer.step(closure=optimizer_closure)
  File "/home/usmana/miniconda3/envs/rl4co-env/lib/python3.10/site-packages/lightning/pytorch/core/optimizer.py", line 155, in step
    step_output = self._strategy.optimizer_step(self._optimizer, closure, **kwargs)
  File "/home/usmana/miniconda3/envs/rl4co-env/lib/python3.10/site-packages/lightning/pytorch/strategies/strategy.py", line 225, in optimizer_step
    return self.precision_plugin.optimizer_step(optimizer, model=model, closure=closure, **kwargs)
  File "/home/usmana/miniconda3/envs/rl4co-env/lib/python3.10/site-packages/lightning/pytorch/plugins/precision/amp.py", line 76, in optimizer_step
    closure_result = closure()
  File "/home/usmana/miniconda3/envs/rl4co-env/lib/python3.10/site-packages/lightning/pytorch/loops/optimization/automatic.py", line 140, in __call__
    self._result = self.closure(*args, **kwargs)
  File "/home/usmana/miniconda3/envs/rl4co-env/lib/python3.10/site-packages/lightning/pytorch/loops/optimization/automatic.py", line 126, in closure
    step_output = self._step_fn()
  File "/home/usmana/miniconda3/envs/rl4co-env/lib/python3.10/site-packages/lightning/pytorch/loops/optimization/automatic.py", line 307, in _training_step
    training_step_output = call._call_strategy_hook(trainer, "training_step", *kwargs.values())
  File "/home/usmana/miniconda3/envs/rl4co-env/lib/python3.10/site-packages/lightning/pytorch/trainer/call.py", line 291, in _call_strategy_hook
    output = fn(*args, **kwargs)
  File "/home/usmana/miniconda3/envs/rl4co-env/lib/python3.10/site-packages/lightning/pytorch/strategies/strategy.py", line 367, in training_step
    return self.model.training_step(*args, **kwargs)
  File "/home/usmana/rl4co2050/rl4co/models/rl/common/base.py", line 249, in training_step
    return self.shared_step(batch, batch_idx, phase="train")
  File "/home/usmana/rl4co2050/rl4co/models/rl/reinforce/reinforce.py", line 56, in shared_step
    out = self.policy(td, self.env, phase=phase)
  File "/home/usmana/miniconda3/envs/rl4co-env/lib/python3.10/site-packages/torch/nn/modules/module.py", line 1501, in _call_impl
    return forward_call(*args, **kwargs)
  File "/home/usmana/rl4co2050/rl4co/models/zoo/common/autoregressive/policy.py", line 151, in forward
    log_p, actions, td_out = self.decoder(td, embeddings, env, phase, **decoder_kwargs)
  File "/home/usmana/miniconda3/envs/rl4co-env/lib/python3.10/site-packages/torch/nn/modules/module.py", line 1501, in _call_impl
    return forward_call(*args, **kwargs)
  File "/home/usmana/rl4co2050/rl4co/models/zoo/common/autoregressive/decoder.py", line 185, in forward
    log_p, mask = self._get_log_p(cached_embeds, td, softmax_temp, num_starts, phase)
  File "/home/usmana/rl4co2050/rl4co/models/zoo/common/autoregressive/decoder.py", line 297, in _get_log_p
    log_p = self.logit_attention(
  File "/home/usmana/miniconda3/envs/rl4co-env/lib/python3.10/site-packages/torch/nn/modules/module.py", line 1501, in _call_impl
    return forward_call(*args, **kwargs)
  File "/home/usmana/rl4co2050/rl4co/models/nn/attention.py", line 204, in forward
    assert not torch.isnan(logits).any(), "Logits contain NaNs"
AssertionError: Logits contain NaNs
wandb: Waiting for W&B process to finish... (failed 1).
wandb: 
wandb: Run history:
wandb:               epoch ▁▁▁▁▁▂▂▂▂▂▃▃▃▃▃▄▄▄▄▄▅▅▅▅▅▅▅▆▆▆▆▆▇▇▇▇▇███
wandb:          train/loss ▇▇▁▇█▂▄▅▆▆▅▆▃▃▄▅▅▆▆▆▄▅▅▅▅▆▆▅▅▅▅▅▅▅▆▆▆▆▆▆
wandb:        train/reward ▁▁▃▅▅▂▂▅▅▅▅▅▃▃▃▅▅▇▇▇▄▄▄▅▆███▅▆▄▄▄▄███▇▇▇
wandb: trainer/global_step ▁▁▁▂▂▂▂▂▂▃▃▃▃▃▄▄▄▄▄▄▅▅▅▅▅▆▆▆▆▆▆▇▇▇▇▇████
wandb:          val/reward ▁▅▅▆▇▇▇███▇█████
wandb: 
wandb: Run summary:
wandb:               epoch 16
wandb:          train/loss -13.33969
wandb:        train/reward -7.94281
wandb: trainer/global_step 3149
wandb:          val/reward -4.86792
wandb: 
wandb: You can sync this run to the cloud by running:
wandb: wandb sync /home/usmana/rl4co2050/wandb/offline-run-20231126_011153-szr2h1m2
wandb: Find logs at: ./wandb/offline-run-20231126_011153-szr2h1m2/logs
