wandb: Tracking run with wandb version 0.15.12
wandb: W&B syncing is set to `offline` in this directory.  
wandb: Run `wandb online` or set WANDB_MODE=online to enable cloud syncing.
/home/usmana/miniconda3/envs/rl4co-env/lib/python3.10/site-packages/lightning/pytorch/loggers/wandb.py:396: UserWarning: There is a wandb run already in progress and newly created instances of `WandbLogger` will reuse this run. If this is not desired, call `wandb.finish()` before instantiating `WandbLogger`.
  rank_zero_warn(
/home/usmana/miniconda3/envs/rl4co-env/lib/python3.10/site-packages/lightning/pytorch/utilities/parsing.py:196: UserWarning: Attribute 'env' is an instance of `nn.Module` and is already saved during checkpointing. It is recommended to ignore them using `self.save_hyperparameters(ignore=['env'])`.
  rank_zero_warn(
/home/usmana/miniconda3/envs/rl4co-env/lib/python3.10/site-packages/lightning/pytorch/utilities/parsing.py:196: UserWarning: Attribute 'policy' is an instance of `nn.Module` and is already saved during checkpointing. It is recommended to ignore them using `self.save_hyperparameters(ignore=['policy'])`.
  rank_zero_warn(
/home/usmana/miniconda3/envs/rl4co-env/lib/python3.10/site-packages/lightning/pytorch/core/saving.py:164: UserWarning: Found keys that are not in the model state dict but in the checkpoint: ['baseline.baseline.model.encoder.init_embedding.init_embed.weight', 'baseline.baseline.model.encoder.init_embedding.init_embed.bias', 'baseline.baseline.model.encoder.mpnn_layers.0.edge_model.lins.0.weight', 'baseline.baseline.model.encoder.mpnn_layers.0.edge_model.lins.0.bias', 'baseline.baseline.model.encoder.mpnn_layers.0.edge_model.lins.1.weight', 'baseline.baseline.model.encoder.mpnn_layers.0.edge_model.lins.1.bias', 'baseline.baseline.model.encoder.mpnn_layers.0.edge_model.lins.2.weight', 'baseline.baseline.model.encoder.mpnn_layers.0.edge_model.lins.2.bias', 'baseline.baseline.model.encoder.mpnn_layers.0.node_model.lins.0.weight', 'baseline.baseline.model.encoder.mpnn_layers.0.node_model.lins.0.bias', 'baseline.baseline.model.encoder.mpnn_layers.0.node_model.lins.1.weight', 'baseline.baseline.model.encoder.mpnn_layers.0.node_model.lins.1.bias', 'baseline.baseline.model.encoder.mpnn_layers.0.node_model.lins.2.weight', 'baseline.baseline.model.encoder.mpnn_layers.0.node_model.lins.2.bias', 'baseline.baseline.model.encoder.mpnn_layers.1.edge_model.lins.0.weight', 'baseline.baseline.model.encoder.mpnn_layers.1.edge_model.lins.0.bias', 'baseline.baseline.model.encoder.mpnn_layers.1.edge_model.lins.1.weight', 'baseline.baseline.model.encoder.mpnn_layers.1.edge_model.lins.1.bias', 'baseline.baseline.model.encoder.mpnn_layers.1.edge_model.lins.2.weight', 'baseline.baseline.model.encoder.mpnn_layers.1.edge_model.lins.2.bias', 'baseline.baseline.model.encoder.mpnn_layers.1.node_model.lins.0.weight', 'baseline.baseline.model.encoder.mpnn_layers.1.node_model.lins.0.bias', 'baseline.baseline.model.encoder.mpnn_layers.1.node_model.lins.1.weight', 'baseline.baseline.model.encoder.mpnn_layers.1.node_model.lins.1.bias', 'baseline.baseline.model.encoder.mpnn_layers.1.node_model.lins.2.weight', 'baseline.baseline.model.encoder.mpnn_layers.1.node_model.lins.2.bias', 'baseline.baseline.model.encoder.mpnn_layers.2.edge_model.lins.0.weight', 'baseline.baseline.model.encoder.mpnn_layers.2.edge_model.lins.0.bias', 'baseline.baseline.model.encoder.mpnn_layers.2.edge_model.lins.1.weight', 'baseline.baseline.model.encoder.mpnn_layers.2.edge_model.lins.1.bias', 'baseline.baseline.model.encoder.mpnn_layers.2.edge_model.lins.2.weight', 'baseline.baseline.model.encoder.mpnn_layers.2.edge_model.lins.2.bias', 'baseline.baseline.model.encoder.mpnn_layers.2.node_model.lins.0.weight', 'baseline.baseline.model.encoder.mpnn_layers.2.node_model.lins.0.bias', 'baseline.baseline.model.encoder.mpnn_layers.2.node_model.lins.1.weight', 'baseline.baseline.model.encoder.mpnn_layers.2.node_model.lins.1.bias', 'baseline.baseline.model.encoder.mpnn_layers.2.node_model.lins.2.weight', 'baseline.baseline.model.encoder.mpnn_layers.2.node_model.lins.2.bias', 'baseline.baseline.model.decoder.context_embedding.W_placeholder', 'baseline.baseline.model.decoder.context_embedding.project_context.weight', 'baseline.baseline.model.decoder.project_node_embeddings.weight', 'baseline.baseline.model.decoder.project_fixed_context.weight', 'baseline.baseline.model.decoder.logit_attention.project_out.weight']
  rank_zero_warn(
val_file not set. Generating dataset instead
test_file not set. Generating dataset instead
val_file not set. Generating dataset instead
test_file not set. Generating dataset instead
val_file not set. Generating dataset instead
test_file not set. Generating dataset instead
val_file not set. Generating dataset instead
test_file not set. Generating dataset instead
Traceback (most recent call last):
  File "/home/usmana/rl4co2050/mpnn_ckpt.py", line 88, in <module>
    out = model(td_init_generalization.clone(), phase="test", decode_type="greedy", return_actions=True)
  File "/home/usmana/miniconda3/envs/rl4co-env/lib/python3.10/site-packages/torch/nn/modules/module.py", line 1501, in _call_impl
    return forward_call(*args, **kwargs)
  File "/home/usmana/rl4co2050/rl4co/models/rl/common/base.py", line 241, in forward
    return self.policy(td, env, **kwargs)
  File "/home/usmana/miniconda3/envs/rl4co-env/lib/python3.10/site-packages/torch/nn/modules/module.py", line 1501, in _call_impl
    return forward_call(*args, **kwargs)
  File "/home/usmana/rl4co2050/rl4co/models/zoo/common/autoregressive/policy.py", line 138, in forward
    embeddings, init_embeds = self.encoder(td)
  File "/home/usmana/miniconda3/envs/rl4co-env/lib/python3.10/site-packages/torch/nn/modules/module.py", line 1501, in _call_impl
    return forward_call(*args, **kwargs)
  File "/home/usmana/rl4co2050/rl4co/models/nn/graph/mpnn.py", line 152, in forward
    update_node_feature, update_edge_feature = layer(
  File "/home/usmana/miniconda3/envs/rl4co-env/lib/python3.10/site-packages/torch/nn/modules/module.py", line 1501, in _call_impl
    return forward_call(*args, **kwargs)
  File "/home/usmana/rl4co2050/rl4co/models/nn/graph/mpnn.py", line 41, in forward
    update_edge_feature = self.edge_update(node_feature, edge_feature, edge_index)
  File "/home/usmana/rl4co2050/rl4co/models/nn/graph/mpnn.py", line 55, in edge_update
    uef = self.edge_model(torch.cat([x_i, x_j, ef], dim=-1))
torch.cuda.OutOfMemoryError: CUDA out of memory. Tried to allocate 1.92 GiB (GPU 0; 7.80 GiB total capacity; 4.86 GiB already allocated; 366.44 MiB free; 6.76 GiB reserved in total by PyTorch) If reserved memory is >> allocated memory try setting max_split_size_mb to avoid fragmentation.  See documentation for Memory Management and PYTORCH_CUDA_ALLOC_CONF
wandb: Waiting for W&B process to finish... (failed 1).
wandb: You can sync this run to the cloud by running:
wandb: wandb sync /home/usmana/rl4co2050/wandb/offline-run-20231129_170811-fw59al5c
wandb: Find logs at: ./wandb/offline-run-20231129_170811-fw59al5c/logs
