wandb: Tracking run with wandb version 0.15.12
wandb: W&B syncing is set to `offline` in this directory.  
wandb: Run `wandb online` or set WANDB_MODE=online to enable cloud syncing.
/home/usmana/miniconda3/envs/rl4co-env/lib/python3.10/site-packages/lightning/pytorch/loggers/wandb.py:396: UserWarning: There is a wandb run already in progress and newly created instances of `WandbLogger` will reuse this run. If this is not desired, call `wandb.finish()` before instantiating `WandbLogger`.
  rank_zero_warn(
/home/usmana/miniconda3/envs/rl4co-env/lib/python3.10/site-packages/lightning/pytorch/utilities/parsing.py:196: UserWarning: Attribute 'env' is an instance of `nn.Module` and is already saved during checkpointing. It is recommended to ignore them using `self.save_hyperparameters(ignore=['env'])`.
  rank_zero_warn(
/home/usmana/miniconda3/envs/rl4co-env/lib/python3.10/site-packages/lightning/pytorch/utilities/parsing.py:196: UserWarning: Attribute 'policy' is an instance of `nn.Module` and is already saved during checkpointing. It is recommended to ignore them using `self.save_hyperparameters(ignore=['policy'])`.
  rank_zero_warn(
/home/usmana/miniconda3/envs/rl4co-env/lib/python3.10/site-packages/lightning/fabric/plugins/environments/slurm.py:165: PossibleUserWarning: The `srun` command is available on your system but is not used. HINT: If your intention is to run Lightning on SLURM, prepend your python command with `srun` like so: srun python attn50_mpnn.py ...
  rank_zero_warn(
Using 16bit Automatic Mixed Precision (AMP)
Trainer already configured with model summary callbacks: [<class 'lightning.pytorch.callbacks.rich_model_summary.RichModelSummary'>]. Skipping setting a default `ModelSummary` callback.
GPU available: True (cuda), used: True
TPU available: False, using: 0 TPU cores
IPU available: False, using: 0 IPUs
HPU available: False, using: 0 HPUs
val_file not set. Generating dataset instead
test_file not set. Generating dataset instead
LOCAL_RANK: 0 - CUDA_VISIBLE_DEVICES: [0]
/home/usmana/miniconda3/envs/rl4co-env/lib/python3.10/site-packages/lightning/pytorch/trainer/connectors/data_connector.py:432: PossibleUserWarning: The dataloader, val_dataloader, does not have many workers which may be a bottleneck. Consider increasing the value of the `num_workers` argument` (try 80 which is the number of cpus on this machine) in the `DataLoader` init to improve performance.
  rank_zero_warn(
/home/usmana/miniconda3/envs/rl4co-env/lib/python3.10/site-packages/lightning/pytorch/trainer/connectors/data_connector.py:432: PossibleUserWarning: The dataloader, train_dataloader, does not have many workers which may be a bottleneck. Consider increasing the value of the `num_workers` argument` (try 80 which is the number of cpus on this machine) in the `DataLoader` init to improve performance.
  rank_zero_warn(
`Trainer.fit` stopped: `max_epochs=100` reached.
val_file not set. Generating dataset instead
test_file not set. Generating dataset instead
LOCAL_RANK: 0 - CUDA_VISIBLE_DEVICES: [0]
/home/usmana/miniconda3/envs/rl4co-env/lib/python3.10/site-packages/lightning/pytorch/trainer/connectors/data_connector.py:432: PossibleUserWarning: The dataloader, test_dataloader, does not have many workers which may be a bottleneck. Consider increasing the value of the `num_workers` argument` (try 80 which is the number of cpus on this machine) in the `DataLoader` init to improve performance.
  rank_zero_warn(
Traceback (most recent call last):
  File "/home/usmana/rl4co2050/attn50_mpnn.py", line 110, in <module>
    out = model(td_init_generalization.clone(), phase="test", decode_type="greedy", return_actions=True)
  File "/home/usmana/miniconda3/envs/rl4co-env/lib/python3.10/site-packages/torch/nn/modules/module.py", line 1501, in _call_impl
    return forward_call(*args, **kwargs)
  File "/home/usmana/rl4co2050/rl4co/models/rl/common/base.py", line 241, in forward
    return self.policy(td, env, **kwargs)
  File "/home/usmana/miniconda3/envs/rl4co-env/lib/python3.10/site-packages/torch/nn/modules/module.py", line 1501, in _call_impl
    return forward_call(*args, **kwargs)
  File "/home/usmana/rl4co2050/rl4co/models/zoo/common/autoregressive/policy.py", line 138, in forward
    embeddings, init_embeds = self.encoder(td)
  File "/home/usmana/miniconda3/envs/rl4co-env/lib/python3.10/site-packages/torch/nn/modules/module.py", line 1501, in _call_impl
    return forward_call(*args, **kwargs)
  File "/home/usmana/rl4co2050/rl4co/models/nn/graph/mpnn.py", line 152, in forward
    update_node_feature, update_edge_feature = layer(
  File "/home/usmana/miniconda3/envs/rl4co-env/lib/python3.10/site-packages/torch/nn/modules/module.py", line 1501, in _call_impl
    return forward_call(*args, **kwargs)
  File "/home/usmana/rl4co2050/rl4co/models/nn/graph/mpnn.py", line 41, in forward
    update_edge_feature = self.edge_update(node_feature, edge_feature, edge_index)
  File "/home/usmana/rl4co2050/rl4co/models/nn/graph/mpnn.py", line 55, in edge_update
    uef = self.edge_model(torch.cat([x_i, x_j, ef], dim=-1))
  File "/home/usmana/miniconda3/envs/rl4co-env/lib/python3.10/site-packages/torch/nn/modules/module.py", line 1501, in _call_impl
    return forward_call(*args, **kwargs)
  File "/home/usmana/rl4co2050/rl4co/models/nn/mlp.py", line 42, in forward
    xs = self.hidden_act(xs)
  File "/home/usmana/miniconda3/envs/rl4co-env/lib/python3.10/site-packages/torch/nn/modules/module.py", line 1501, in _call_impl
    return forward_call(*args, **kwargs)
  File "/home/usmana/miniconda3/envs/rl4co-env/lib/python3.10/site-packages/torch/nn/modules/activation.py", line 103, in forward
    return F.relu(input, inplace=self.inplace)
  File "/home/usmana/miniconda3/envs/rl4co-env/lib/python3.10/site-packages/torch/nn/functional.py", line 1457, in relu
    result = torch.relu(input)
torch.cuda.OutOfMemoryError: CUDA out of memory. Tried to allocate 314.00 MiB (GPU 0; 7.80 GiB total capacity; 6.43 GiB already allocated; 280.44 MiB free; 6.84 GiB reserved in total by PyTorch) If reserved memory is >> allocated memory try setting max_split_size_mb to avoid fragmentation.  See documentation for Memory Management and PYTORCH_CUDA_ALLOC_CONF
wandb: Waiting for W&B process to finish... (failed 1).
wandb: 
wandb: Run history:
wandb:               epoch ▁▁▁▂▂▂▂▂▂▃▃▃▃▃▃▄▄▄▄▄▅▅▅▅▅▆▆▆▆▆▆▇▇▇▇▇▇███
wandb:         test/reward ▁
wandb:          train/loss ▁▆▆██▇███▇▇▇▇▇▇▇▇▇▇▇▇▇▇▇▇▇▇▇▇▇▇▇▇▇▇▇▇▇▇▇
wandb:        train/reward ▁▄▃▃▄▇▄▄▄▃▄▄▅▄█▃▆▇█▇▄▇▅▆▇▄██▅▇▅█▆▅▅▄▄▄▆▄
wandb: trainer/global_step ▁▁▁▂▂▂▂▂▂▃▃▃▃▃▃▄▄▄▄▄▅▅▅▅▅▅▆▆▆▆▆▇▇▇▇▇▇███
wandb:          val/reward ▁▆▆▇▇▇▇▇▇█████▇█████████████████████████
wandb: 
wandb: Run summary:
wandb:               epoch 100
wandb:         test/reward -4.22277
wandb:          train/loss -0.85662
wandb:        train/reward -5.87385
wandb: trainer/global_step 19600
wandb:          val/reward -4.97718
wandb: 
wandb: You can sync this run to the cloud by running:
wandb: wandb sync /home/usmana/rl4co2050/wandb/offline-run-20231124_182648-1g0cuqx3
wandb: Find logs at: ./wandb/offline-run-20231124_182648-1g0cuqx3/logs
