/var/spool/slurm/d/job528123/slurm_script: line 15: wandb: command not found
/var/spool/slurm/d/job528123/slurm_script: line 16: wandb: command not found
Traceback (most recent call last):
  File "/home/usmana/rl4co2050/attn50_transformer.py", line 1, in <module>
    from rl4co.envs import TSPEnv
  File "/home/usmana/rl4co2050/rl4co/envs/__init__.py", line 3, in <module>
    from rl4co.envs.atsp import ATSPEnv
  File "/home/usmana/rl4co2050/rl4co/envs/atsp.py", line 3, in <module>
    import torch
ModuleNotFoundError: No module named 'torch'
